…
df_log_01_wide_jt %>% 
  suddengains::create_bysg(sg_crit1_cutoff = 2, 
                               id_var_name = "id", 
                               sg_var_list = paste0("bdi_t", 1:20), 
                               sg_measure_name = "bdi",
                               tx_start_var_name = "bdi_t1", 
                               tx_end_var_name = "bdi_t20")
#> First, second, and third sudden gains criteria were applied.
#> The critical value for the third criterion was adjusted for missingness.
#> # A tibble: 46 x 36
#>       id id_sg    sg_crit123 sg_session_n sg_freq_byperson bdi_t1 bdi_t2 bdi_t3
#>    <dbl> <chr>         <int>        <dbl>            <int>  <dbl>  <dbl>  <dbl>
#>  1     3 3_sg_11           1           11                1   23.5   33.2   25.9
#>  2     7 7_sg_15           1           15                1   27.4   NA     28.0
#>  3     8 8_sg_9            1            9                2   41.7   34.4   37.0
#>  4     8 8_sg_16           1           16                2   41.7   34.4   37.0
#>  5    13 13_sg_11          1           11                1   31.0   20.2   20.9
#>  6    14 14_sg_16          1           16                1   42.4   40.8   NA  
#>  7    16 16_sg_5           1            5                1   22.0   20.2   20.2
#>  8    17 17_sg_10          1           10                1   21.8   22.9   38.1
#>  9    18 18_sg_17          1           17                1   30.5   24.6   28.2
#> 10    19 19_sg_3           1            3                1   34.2   34.9   26.5
#> # … with 36 more rows, and 28 more variables: bdi_t4 <dbl>, bdi_t5 <dbl>,
#> #   bdi_t6 <dbl>, bdi_t7 <dbl>, bdi_t8 <dbl>, bdi_t9 <dbl>, bdi_t10 <dbl>,
#> #   bdi_t11 <dbl>, bdi_t12 <dbl>, bdi_t13 <dbl>, bdi_t14 <dbl>, bdi_t15 <dbl>,
#> #   bdi_t16 <dbl>, bdi_t17 <dbl>, bdi_t18 <dbl>, bdi_t19 <dbl>, bdi_t20 <dbl>,
#> #   sg_bdi_2n <dbl>, sg_bdi_1n <dbl>, sg_bdi_n <dbl>, sg_bdi_n1 <dbl>,
#> #   sg_bdi_n2 <dbl>, sg_bdi_n3 <dbl>, sg_magnitude <dbl>,
#> #   sg_bdi_tx_change <dbl>, sg_change_proportion <dbl>,
#> #   sg_reversal_value <dbl>, sg_reversal <dbl>
```
